^F:\BLACKBISS\BLACK-PROJECT\C_BASICS\WORD_COUNT\WORD_COUNT.C
F:\BLACKBISS\BLACK-PROJECT\C_BASICS\WORD_COUNT\WORD_COUNT\DEBUG\VC141.PDB
F:\BLACKBISS\BLACK-PROJECT\C_BASICS\WORD_COUNT\WORD_COUNT\DEBUG\VC141.IDB
F:\BLACKBISS\BLACK-PROJECT\C_BASICS\WORD_COUNT\WORD_COUNT\DEBUG\WORD_COUNT.OBJ
